[
  {
    "ParameterKey": "VpcCidr",
    "ParameterValue": "10.0.0.0/16"
  },
  {
    "ParameterKey": "AvailabilityZone0",
    "ParameterValue": "eu-west-1a"
  },
  {
    "ParameterKey": "AvailabilityZone1",
    "ParameterValue": "eu-west-1b"
  },
  {
    "ParameterKey": "AvailabilityZone2",
    "ParameterValue": "eu-west-1c"
  },
  {
    "ParameterKey": "Subnet0Cidr",
    "ParameterValue": "10.0.0.0/24"
  },
  {
    "ParameterKey": "Subnet1Cidr",
    "ParameterValue": "10.0.1.0/24"
  },
  {
    "ParameterKey": "Subnet2Cidr",
    "ParameterValue": "10.0.2.0/24"
  },
  {
    "ParameterKey": "SubnetPublicCidr",
    "ParameterValue": "10.0.3.0/24"
  },
  {
    "ParameterKey": "SubnetPublic0Cidr",
    "ParameterValue": "10.0.4.0/24"
  },
  {
    "ParameterKey": "SubnetPublic1Cidr",
    "ParameterValue": "10.0.5.0/24"
  },
  {
    "ParameterKey": "SubnetPublic2Cidr",
    "ParameterValue": "10.0.6.0/24"
  },
  {
    "ParameterKey": "ClusterDomainName",
    "ParameterValue": "test.lab"
  }
]
